Api\ApiErrorCodeLookup.cs
Api\ApplicationMessage.cs
Api\AuthenticationException.cs
Api\Axis\AxisPaymentApiException.cs
Api\Axis\AxisPaymentApiNonZeroStatusCodeException.cs
Api\Axis\AxisPaymentExceptionType.cs
Api\Axis\PaymentApiException.cs
Api\Axis\AxisPaymentServiceNetworkAvailabilityDecorator.cs
Api\Axis\PaymentService.cs
Api\Axis\TfL\NotifyTfLRequestHandler.cs
Api\ClientApiException.cs
Api\IClientApiExceptionHandler.cs
Api\ITfLApi.cs
Api\IRequestExecuter.cs
Api\NoNetworkConnectionException.cs
Api\Axis\AxisPaymentServiceRetryPolicyDecorator.cs
Api\BypassDecorator.cs
Api\NetworkCheckerDecorator.cs
Environment\FlowStateRepo.cs
Environment\AuthService.cs
Environment\FlowState.cs
Environment\FlowStatesModel.cs
Environment\IAuthService.cs
Environment\IHttpClientFactory.cs
Extensions\StringExtensions.cs
Helper\CardTypeGuesser.cs
Model\AccountInfo\AccountVehicleWithServicesDto.cs
Model\AccountInfo\AddOrReplacePaymentCardDto.cs
Api\TflApiExceptionDecorator.cs
Api\TflApiResponseHandler.cs
Api\RetryDecorator.cs
Environment\AppPage.cs
Environment\AppStateRepo.cs
Environment\AuthStateModel.cs
Model\AccountInfo\VehicleListRequestDto.cs
Model\AccountInfo\VehicleListResponseDto.cs
Model\Auth\AuthTokenDto.cs
Model\Auth\AuthResponseDto.cs
Model\Auth\AuthTokenRefreshDto.cs
Model\Base\ClientApiResponseDataItem.cs
Model\PayCc\CcDetailItem.cs
Model\PayCc\ICcDetail.cs
Model\ReceiptAuthDetailDto.cs
Model\ReceiptDto.cs
Model\ReceiptListDto.cs
NetworkUtils.cs
Services\AutoPayStatus.cs
Storage\Persist.cs
Environment\AxisConfiguration.cs
Environment\IAppNavigationService.cs
Extensions\IEnumerableExtensions.cs
Extensions\IFileExtensions.cs
Extensions\IFileSystemExtensions.cs
Extensions\IFolderExtensions.cs
Extensions\StreamExtensions.cs
Extensions\TaskExtensions.cs
Helper\CardUtils.cs
Environment\Connection.cs
Environment\IConnection.cs
Environment\IDispatchOnUiThread.cs
Environment\IUserDialogs.cs
Extensions\DateTimeExtensions.cs
Extensions\DecimalExtensions.cs
Api\ClientApiExceptionHandler.cs
Extensions\ExceptionExtensions.cs
Helper\Dbg.cs
Logging\Analytics.cs
Logging\IAnalytics.cs
Environment\AppState.cs
Model\AccountInfo\AccountInformationDto.cs
Model\AccountInfo\AccountAddressDto.cs
Model\AccountInfo\AccountAutoPayDto.cs
Model\AccountInfo\AccountPaymentCardDto.cs
Model\AccountInfo\AccountTflServiceDto.cs
Model\AccountInfo\AccountVehicleDto.cs
Model\ChargePeriod.cs
Model\ChargeType.cs
Model\IVehicleDto.cs
Serialization\Implementation\EncryptedBinarySerializer.cs
Serialization\Implementation\JsonSerializer.cs
Serialization\Implementation\JsonToStringSerializer.cs
Serialization\Implementation\StringToJsonDeserializer.cs
Serialization\Interfaces\IBinarySerializer.cs
Serialization\Interfaces\ISerializer.cs
Serialization\Interfaces\IStringSerializer.cs
Services\LoggedInUserInformationService.cs
Services\IAnonymousUserInformationService.cs
Services\ILoggedInUserInformationService.cs
Storage\BinarySerializedFileStore.cs
Storage\IFolderProvider.cs
Storage\IKeyValueStore.cs
Storage\IPersist.cs
Storage\StoredCard.cs
Storage\StoredVehicle.cs
ViewModel\IBrowserViewModel.cs
ViewModel\LoggedInAccount\AutoPayPaymentCardViewModel.cs
ViewModel\LoggedInAccount\ManageCcAutoPayViewModel.cs
ViewModel\LoggedInAccount\YourAccountViewModel.cs
ViewModel\PayCc\ConfirmVrmViewModel.cs
ViewModel\PayCc\ChargeViewModelBase.cs
ViewModel\PayCc\EsChargeFlag.cs
ViewModel\PayCc\LookupOrConfirmVrmViewModelBase.cs
ViewModel\PayCc\State\CcState.cs
ViewModel\PayCc\State\IPcnOrCcState.cs
ViewModel\PayCc\State\LookupVrmFlowState.cs
ViewModel\PayCc\State\PaymentFlowState.cs
PCLCrypto\CryptoUtilities.cs
PCLCrypto\ICryptoKeyStore.cs
Model\Base\ClientApiErrorCodes.cs
Model\Base\ErrorResponseItem.cs
Model\Base\ClientApiResponseDtoBase.cs
Api\Axis\CPS\AuthoriseTransactionRequestHandler.cs
Api\Axis\CPS\CommitTransactionRequestHandler.cs
Api\Axis\CPS\StoreCardRequestHandler.cs
Model\PayCc\CcChargeListHolder.cs
Model\PayCc\CcPaymentDetailHolder.cs
Model\Payments\PaymentRequestDto.cs
Storage\StoredReceipt.cs
ViewModel\PaymentCardViewModel.cs
Model\PostcodeDetailDto.cs
Model\QuotedDecimalFormatConverter.cs
Model\PayCc\CcPayment.cs
Model\PayCc\CcPaymentAuthDetail.cs
Model\PayCc\CcPaymentDetail.cs
Model\PayCc\CcPaymentReceipt.cs
Model\PayCc\CcDetail.cs
Model\PayCc\CcDetailMultipleDay.cs
Model\PayCc\CcDetailSingleDay.cs
Model\PayCc\CcVehicle.cs
Model\LookupVrmDto.cs
Model\PayPcn\PcnDetailDto.cs
NetworkConstants.cs
Environment\AppStateModel.cs
ViewModel\PayCc\State\JourneyDetails.cs
Environment\NinjectRuntimeModule.cs
Environment\Sharedkeys.cs
Services\IUserInformationService.cs
Services\AnonymousUserInformationService.cs
Validators\LoginViewModelValidator.cs
Validators\PostCodeViewModelValidator.cs
Validators\LookupPcnViewModelValidator.cs
Validators\LookupVRMViewModelValidator.cs
Validators\PaymentValidator.cs
ViewModel\Main\AllDoneViewModel.cs
ViewModel\Main\AppRatingChecker.cs
ViewModel\Main\IAppRatingChecker.cs
ViewModel\Main\LoginViewModel.cs
ViewModel\Main\MainViewModel.cs
ViewModel\PayCc\ChooseDatesViewModel.cs
ViewModel\PayCc\JourneyDetailsViewModel.cs
ViewModel\PayCc\State\PcnState.cs
ViewModel\PayCc\WhichVehicleViewModel.cs
ViewModel\PayCc\MultipleDayChargeViewModel.cs
ViewModel\PayCc\SingleDayChargeViewModel.cs
ViewModel\Payments\PaymentViewModelBase.cs
ViewModel\Payments\SelectPaymentCardViewModel.cs
ViewModel\Payments\PaymentViewModel.cs
ViewModel\PrivacyPolicyBrowswerViewModel.cs
ViewModel\VehicleViewModel.cs
Model\PayPcn\PcnPaymentReceiptDto.cs
ViewModel\TflViewModelBase.cs
ViewModel\PayCc\LookupVrmViewModel.cs
Model\PayPcn\PcnPaymentDto.cs
ViewModel\PayPcn\ConfirmPCNViewModel.cs
ViewModel\PayPcn\PcnLookupViewModel.cs
Properties\AssemblyInfo.cs
Resources\Strings.cs
Environment\AppEnvironment.cs
ViewModel\PostCodeCheckerViewModel.cs
ViewModel\Receipts\ReceiptViewModel.cs
ViewModel\Receipts\ViewReceiptsViewModel.cs
ViewModel\TermsAndConditionsViewModel.cs
ViewModel\LoggedInAccount\AutoPayVehiclesViewModel.cs
ViewModel\AnonymousAccount\AnonymousAccountViewModel.cs
ViewModel\LoggedInAccount\LoggedInAccountViewModel.cs
C:\Users\P10377632\AppData\Local\Temp\.NETPortable,Version=v4.5,Profile=Profile49.AssemblyAttributes.cs
obj\Release-UAT\\TemporaryGeneratedFile_E7A71F73-0F8D-4B9B-B56E-8E70B10BC5D3.cs
obj\Release-UAT\\TemporaryGeneratedFile_036C0B5B-1481-4323-8D20-8F5ADCB23D92.cs
obj\Release-UAT\\TemporaryGeneratedFile_5937a670-0e60-4077-877b-f7221da3dda1.cs
